                 Date-time     lat     lon  SIL~depth n.PGV filter n.SIL   lin MW nonlin MW   ML
0  2020-06-20 03:47:44.700  66.279 -18.499       10.6    49     27    23  3.55616   3.57587  3.5
1  2020-06-20 06:50:35.200  66.276 -18.511        8.8    50     28    23  3.58945   3.61964  3.6
2  2020-06-20 15:03:10.700  66.291 -18.509        2.9   NaN    NaN    23      NaN       NaN  3.5
3  2020-06-20 15:05:08.300  66.296 -18.518        1.1    53     28    53  5.52888   5.50889  5.0
4  2020-06-20 15:08:09.500  66.365 -18.510       16.2   NaN    NaN    19      NaN       NaN  3.7
5  2020-06-20 15:22:50.700  66.365 -18.899        0.7    52     24    10  4.38312   4.37939  3.8
6  2020-06-20 15:22:57.000  66.263 -18.501        3.7    52     28    12  4.25937   4.25969  3.9
7  2020-06-20 15:42:03.900  66.282 -18.533        7.0    25     24    28  3.57824    3.6083  3.5
8  2020-06-20 16:34:43.100  66.261 -18.556        9.2    30     26    17  3.59157   3.62842  3.6
9  2020-06-20 16:39:33.200  66.276 -18.542        4.2    53     28    27  4.09306   4.10344  4.1
10 2020-06-20 19:26:20.800  66.249 -18.546        1.2    54     29    39  5.76154   5.73777  5.4
11 2020-06-20 19:27:37.600  66.259 -18.475        4.8   NaN    NaN     8      NaN       NaN  3.7
12 2020-06-20 19:35:36.400  66.255 -18.545        4.6   NaN    NaN    24      NaN       NaN  3.8
13 2020-06-20 19:38:46.200  66.265 -18.404        1.1   NaN    NaN    40      NaN       NaN  4.1
14 2020-06-20 19:44:07.900  66.282 -18.582        7.7   NaN    NaN    22      NaN       NaN  3.7
15 2020-06-20 19:49:38.800  66.288 -18.511        5.4    50     29    26  3.91714   3.91961  3.8
16 2020-06-20 20:11:15.500  66.273 -18.520        1.1    53     29    35  4.70896   4.69617  4.1