sta,time,pgv,latitude,longitude,height,distance
sol,2020-07-20 05:46:11.300,143.85,63.92896,-20.94357,0.03,67.55932517202412
asm,2020-07-20 05:46:23.140,1996.79,63.83361,-20.61474,0.022000000000000002,84.29259134776038
vog,2020-07-20 05:46:31.560,3316.2,63.969669999999994,-22.39285,0.006999999999999999,7.160509388924295
kri,2020-07-20 05:46:32.120,3587.31,63.8781,-22.07646,0.146,12.612819272300035
grv,2020-07-20 05:46:32.270,4255.04,63.85716,-22.45583,0.052000000000000005,9.20242990421366
ada,2020-07-20 05:46:33.950,1510.06,65.01879,-15.574520000000001,0.44299999999999995,346.9309491918018
nyl,2020-07-20 05:46:34.770,1098.62,63.97368,-22.737920000000003,0.006999999999999999,21.543524130548313
bja,2020-07-20 05:46:35.540,216.39,63.9459,-21.30258,0.057,50.03472020168533
kas,2020-07-20 05:46:36.520,266.23,64.0229,-21.852,0.10800000000000001,25.941599367335265
rne,2020-07-20 05:46:38.440,653.59,63.81681,-22.70563,0.019,21.837373055119052
hei,2020-07-20 05:46:44.020,373.2,64.19978,-21.23604,0.162,61.77877534052634
vos,2020-07-20 05:46:44.920,842.8,63.85279,-21.703570000000003,0.008,31.047570785149823
kro,2020-07-20 05:46:46.920,149.71,64.09806,-21.11976,0.147,62.19786946271045
mid,2020-07-20 05:46:52.160,30.45,63.65833000000001,-19.88573,0.132,123.3516054178732
sau,2020-07-20 05:46:55.110,125.93,63.989830000000005,-20.41519,0.07400000000000001,93.74415617749548
hvo,2020-07-20 05:46:57.260,23.02,63.5261,-18.84781,0.196,176.93752660619614
ves,2020-07-20 05:46:59.240,103.36,63.44291,-20.28664,0.055,113.50763891263907
asb,2020-07-20 05:47:02.030,221.0,64.74818,-21.32535,0.094,104.69323899439058
skr,2020-07-20 05:47:08.600,7.71,64.56014,-18.386470000000003,0.858,203.942121951252
jok,2020-07-20 05:47:10.610,60.46,64.31529,-18.22546,0.736,204.44608043684244
fed,2020-07-20 05:47:13.360,172.78,64.02508,-19.69086,0.43200000000000005,129.37300056213624
mjo,2020-07-20 05:47:15.870,232.76,63.93295,-19.67238,0.7040000000000001,129.91469369808362
esk,2020-07-20 05:47:17.040,34.66,63.52503000000001,-19.4508,0.095,148.26683052406557
sig,2020-07-20 05:47:19.910,18.6,66.13229,-18.91483,0.01,294.74689587690347
hau,2020-07-20 05:47:21.420,132.17,63.968509999999995,-19.96471,0.096,115.64347658218487
rju,2020-07-20 05:47:31.660,29.05,63.61745,-18.6721,0.17300000000000001,182.9749017597069
gyg,2020-07-20 05:47:34.360,73.47,64.28107,-20.21483,0.11900000000000001,110.49952553491475
dyn,2020-07-20 05:47:39.060,59.06,64.79086,-17.36626,1.209,258.44485794926845
von,2020-07-20 05:47:40.240,12.2,64.67322,-17.75582,0.9990000000000001,236.575686018511
hus,2020-07-20 05:47:40.940,12.18,64.2955,-17.6565,1.314,231.2267927519717
hrn,2020-07-20 05:47:44.080,35.11,66.11,-20.12252,0.015,265.82386945795963
gri,2020-07-20 05:47:45.140,7.04,66.54151999999999,-18.009510000000002,0.036000000000000004,355.45758653932467
vot,2020-07-20 05:47:48.270,21.01,64.27081,-17.18254,1.041,253.61952672128055
ksk,2020-07-20 05:47:49.250,4.99,64.1613,-16.4737,0.94,286.9090084213296
fag,2020-07-20 05:47:50.040,5.07,63.87478,-16.65364,0.027000000000000003,278.2536829002813
bjk,2020-07-20 05:47:53.350,7.5,64.46898,-16.752470000000002,1.5719999999999998,277.4483134836943
tho,2020-07-20 05:47:58.380,8.45,64.93372,-16.67558,0.691,294.67168039379465
grf,2020-07-20 05:47:58.980,10.82,64.40656,-17.267129999999998,1.71,251.81332543575533
kal,2020-07-20 05:48:00.820,5.99,63.94761,-17.68698,0.078,227.24306752376333
djk,2020-07-20 05:48:03.580,7.4,64.50405,-17.23571,1.683,255.45640398729972
bre,2020-07-20 05:48:05.440,3.84,66.12335999999999,-17.909670000000002,0.040999999999999995,322.19364997870196
vsh,2020-07-20 05:48:06.290,2.52,64.80775,-15.72768,0.86,333.45310428055836
sly,2020-07-20 05:48:07.840,124.5,63.82402,-19.11732,0.633,157.74840525857763
mko,2020-07-20 05:48:08.110,5.13,64.9784,-16.338260000000002,0.69,311.35491154543087
gha,2020-07-20 05:48:08.560,8.9,65.84346,-16.66291,0.396,343.50796215020813
dim,2020-07-20 05:48:09.530,5.42,65.96151,-16.93192,0.266,341.8802234487732
hed,2020-07-20 05:48:18.150,8.43,66.0808,-17.30975,0.075,337.80389136977607
lei,2020-07-20 05:48:22.410,6.73,66.40665,-16.48957,0.040999999999999995,389.56124065704375
iey,2020-07-20 05:48:24.590,19.77,64.09534000000001,-18.123910000000002,0.652,206.24260543679418
hla,2020-07-20 05:48:26.120,2.1,65.94440999999999,-18.38724,0.037000000000000005,292.88946689091887
grs,2020-07-20 05:48:29.080,3.59,65.63811,-16.12409,0.37799999999999995,351.6470232726515
sva,2020-07-20 05:48:29.470,5.35,65.33691,-17.25454,0.40299999999999997,289.4879507404094
ren,2020-07-20 05:48:30.950,7.97,65.64699,-16.905910000000002,0.33799999999999997,321.7542232814919
mel,2020-07-20 05:48:38.630,6.26,65.57002,-16.65725,0.37,326.6691793806943
kre,2020-07-20 05:48:52.400,4.89,64.78369,-16.382820000000002,0.76,302.6941975782484
ask,2020-07-20 05:49:05.350,6.59,65.05192,-16.64819,0.955,300.65248044365956
gil,2020-07-20 05:49:07.470,5.72,66.07734,-16.35131,0.134,370.52394142442967
