sta,time,pgv,latitude,longitude,height,distance
grv,2020-06-21 21:26:14.070,64.99,63.85716,-22.45583,0.052000000000000005,339.0455199793801
hed,2020-06-21 21:26:22.960,157.67,66.0808,-17.30975,0.075,76.07767593312977
sig,2020-06-21 21:26:36.950,522.07,66.13229,-18.91483,0.01,37.725380553217214
bre,2020-06-21 21:26:40.580,73.7,66.12335999999999,-17.909670000000002,0.040999999999999995,52.224056656573595
gri,2020-06-21 21:26:47.080,1526.57,66.54151999999999,-18.009510000000002,0.036000000000000004,32.70372780192674
hla,2020-06-21 21:26:47.590,42.34,65.94440999999999,-18.38724,0.037000000000000005,59.477941087753806
lei,2020-06-21 21:26:55.680,325.92,66.40665,-16.48957,0.040999999999999995,99.54962087426127
ren,2020-06-21 21:26:59.660,65.55,65.64699,-16.905910000000002,0.33799999999999997,122.32243877624592
dim,2020-06-21 21:27:02.000,58.3,65.96151,-16.93192,0.266,97.74925493676238
gil,2020-06-21 21:27:04.290,64.97,66.07734,-16.35131,0.134,114.51737079179011
sva,2020-06-21 21:27:08.410,43.85,65.33691,-17.25454,0.40299999999999997,141.93834035901412
mel,2020-06-21 21:27:10.650,42.13,65.57002,-16.65725,0.37,136.3610898571986
grs,2020-06-21 21:27:11.810,29.34,65.63811,-16.12409,0.37799999999999995,149.02998933376156
ada,2020-06-21 21:27:13.860,35.53,65.01879,-15.574520000000001,0.44299999999999995,215.871423820179
ask,2020-06-21 21:27:24.000,34.65,65.05192,-16.64819,0.955,183.47159823422774
hau,2020-06-21 21:27:24.190,7.94,63.968509999999995,-19.96471,0.096,283.9646778178589
gyg,2020-06-21 21:27:25.340,22.13,64.28107,-20.21483,0.11900000000000001,252.84320923683038
gha,2020-06-21 21:27:26.570,42.93,65.84346,-16.66291,0.396,115.4400941736697
mko,2020-06-21 21:27:26.860,18.59,64.9784,-16.338260000000002,0.69,198.0645149288431
tho,2020-06-21 21:27:27.910,29.77,64.93372,-16.67558,0.691,194.36893170977842
dyn,2020-06-21 21:27:28.300,247.61,64.79086,-17.36626,1.209,196.3194626831523
von,2020-06-21 21:27:28.850,40.14,64.67322,-17.75582,0.9990000000000001,204.20375928723695
skr,2020-06-21 21:27:29.450,20.45,64.56014,-18.386470000000003,0.858,212.49325012822098
kre,2020-06-21 21:27:30.760,14.87,64.78369,-16.382820000000002,0.76,215.6850536451624
asb,2020-06-21 21:27:33.080,35.05,64.74818,-21.32535,0.094,225.6753837811393
jok,2020-06-21 21:27:35.310,89.4,64.31529,-18.22546,0.736,240.32560949929987
hrn,2020-06-21 21:27:39.110,217.29,66.11,-20.12252,0.015,74.29178140082483
sol,2020-06-21 21:27:40.300,7.51,63.92896,-20.94357,0.03,300.92244998282683
djk,2020-06-21 21:27:41.340,29.96,64.50405,-17.23571,1.683,228.7044830799964
hus,2020-06-21 21:27:41.810,18.72,64.2955,-17.6565,1.314,246.41688622653837
iey,2020-06-21 21:27:42.060,18.96,64.09534000000001,-18.123910000000002,0.652,265.2045137707869
grf,2020-06-21 21:27:43.150,27.95,64.40656,-17.267129999999998,1.71,238.71709763589553
vsh,2020-06-21 21:27:43.530,9.19,64.80775,-15.72768,0.86,229.9948660663197
ksk,2020-06-21 21:27:45.150,3.58,64.1613,-16.4737,0.94,276.8632790183826
bjk,2020-06-21 21:27:45.680,19.97,64.46898,-16.752470000000002,1.5719999999999998,240.00648902061934
kal,2020-06-21 21:27:46.310,3.48,63.94761,-17.68698,0.078,284.33237658594925
kro,2020-06-21 21:27:48.200,11.26,64.09806,-21.11976,0.147,286.3113260919345
hei,2020-06-21 21:27:50.720,22.94,64.19978,-21.23604,0.162,278.0675488259552
san,2020-06-21 21:27:51.750,20.56,64.05601,-21.57013,0.20800000000000002,299.40080573398166
fed,2020-06-21 21:27:54.840,16.63,64.02508,-19.69086,0.43200000000000005,275.3837126441889
sau,2020-06-21 21:27:55.920,7.22,63.989830000000005,-20.41519,0.07400000000000001,286.7345852016756
fag,2020-06-21 21:27:57.960,3.97,63.87478,-16.65364,0.027000000000000003,304.0868028870672
asm,2020-06-21 21:27:58.930,25.08,63.83361,-20.61474,0.022000000000000002,306.14988495788907
nyl,2020-06-21 21:28:01.780,51.63,63.97368,-22.737920000000003,0.006999999999999999,335.00789657015576
vos,2020-06-21 21:28:03.710,22.9,63.85279,-21.703570000000003,0.008,322.7117636504403
kas,2020-06-21 21:28:04.000,12.38,64.0229,-21.852,0.10800000000000001,308.7640886713769
kri,2020-06-21 21:28:04.770,14.39,63.8781,-22.07646,0.146,328.1435619991204
mjo,2020-06-21 21:28:05.060,25.93,63.93295,-19.67238,0.7040000000000001,285.3931653918055
vog,2020-06-21 21:28:08.290,47.48,63.969669999999994,-22.39285,0.006999999999999999,326.6243630095182
rne,2020-06-21 21:28:09.950,25.11,63.81681,-22.70563,0.019,349.0940269922841
hvo,2020-06-21 21:28:11.940,3.78,63.5261,-18.84781,0.196,327.277832736333
esk,2020-06-21 21:28:18.060,5.74,63.52503000000001,-19.4508,0.095,329.1635510176027
rju,2020-06-21 21:28:57.560,7.9,63.61745,-18.6721,0.17300000000000001,317.04279552474213
