sta,time,pgv,latitude,longitude,height,distance
ksk,2020-06-20 16:34:10.920,0.16,64.1613,-16.4737,0.94,253.54961026001135
vsh,2020-06-20 16:34:33.150,1.88,64.80775,-15.72768,0.86,208.17410891808566
hed,2020-06-20 16:34:36.510,188.79,66.0808,-17.30975,0.075,59.68937074775387
skr,2020-06-20 16:34:47.190,3.79,64.56014,-18.386470000000003,0.858,189.80691734659788
bre,2020-06-20 16:34:53.380,67.78,66.12335999999999,-17.909670000000002,0.040999999999999995,32.921816645782805
hla,2020-06-20 16:34:54.530,41.96,65.94440999999999,-18.38724,0.037000000000000005,36.11806410445502
hrn,2020-06-20 16:35:04.840,97.63,66.11,-20.12252,0.015,72.58815252869819
dim,2020-06-20 16:35:06.940,56.9,65.96151,-16.93192,0.266,80.65486682328232
gri,2020-06-20 16:35:10.050,148.66,66.54151999999999,-18.009510000000002,0.036000000000000004,39.686163347414535
sig,2020-06-20 16:35:11.110,465.17,66.13229,-18.91483,0.01,21.61860964053913
ren,2020-06-20 16:35:12.790,70.09,65.64699,-16.905910000000002,0.33799999999999997,101.58723177028358
kre,2020-06-20 16:35:13.600,2.84,64.78369,-16.382820000000002,0.76,192.9414621113285
gha,2020-06-20 16:35:13.950,24.94,65.84346,-16.66291,0.396,97.59494155776675
sva,2020-06-20 16:35:16.220,36.57,65.33691,-17.25454,0.40299999999999997,119.00839561526767
lei,2020-06-20 16:35:16.620,56.36,66.40665,-16.48957,0.040999999999999995,94.00670088322197
grs,2020-06-20 16:35:20.000,12.76,65.63811,-16.12409,0.37799999999999995,130.61987293074682
mel,2020-06-20 16:35:21.060,25.45,65.57002,-16.65725,0.37,115.82852790652682
ask,2020-06-20 16:35:23.240,25.5,65.05192,-16.64819,0.955,160.86234174107383
djk,2020-06-20 16:35:28.610,5.68,64.50405,-17.23571,1.683,205.2804745831127
ada,2020-06-20 16:35:30.090,8.78,65.01879,-15.574520000000001,0.44299999999999995,194.97516796997408
bjk,2020-06-20 16:35:32.260,3.29,64.46898,-16.752470000000002,1.5719999999999998,216.69330638550198
mko,2020-06-20 16:35:35.980,3.94,64.9784,-16.338260000000002,0.69,175.74993935958972
tho,2020-06-20 16:35:36.130,9.28,64.93372,-16.67558,0.691,171.51492772530403
asb,2020-06-20 16:35:39.830,9.03,64.74818,-21.32535,0.094,211.81238607702826
jok,2020-06-20 16:35:43.330,15.1,64.31529,-18.22546,0.736,217.4874579844576
von,2020-06-20 16:35:44.750,6.54,64.67322,-17.75582,0.9990000000000001,180.87617189541564
gil,2020-06-20 16:35:47.320,136.83,66.07734,-16.35131,0.134,101.52114047468882
iey,2020-06-20 16:35:48.370,2.97,64.09534000000001,-18.123910000000002,0.652,242.30666643241247
kal,2020-06-20 16:35:53.340,0.81,63.94761,-17.68698,0.078,261.1354644003177
kas,2020-06-20 16:36:07.790,2.72,64.0229,-21.852,0.10800000000000001,293.493641949258
