sta,time,pgv,latitude,longitude,height,distance
sol,2020-07-19 23:35:56.170,779.82,63.92896,-20.94357,0.03,65.31330981710447
asm,2020-07-19 23:36:08.010,6149.68,63.83361,-20.61474,0.022000000000000002,82.27151934812846
kri,2020-07-19 23:36:16.930,14824.0,63.8781,-22.07646,0.146,11.279468725681175
grv,2020-07-19 23:36:20.320,11936.9,63.85716,-22.45583,0.052000000000000005,11.959372071271739
bja,2020-07-19 23:36:22.900,861.82,63.9459,-21.30258,0.057,47.72527686955385
kas,2020-07-19 23:36:24.970,604.29,64.0229,-21.852,0.10800000000000001,23.210315416778872
rne,2020-07-19 23:36:26.740,1845.71,63.81681,-22.70563,0.019,24.585656200189927
vos,2020-07-19 23:36:29.750,4725.37,63.85279,-21.703570000000003,0.008,29.327373732667233
kro,2020-07-19 23:36:31.780,361.71,64.09806,-21.11976,0.147,59.559903304639164
nyl,2020-07-19 23:36:33.310,2148.53,63.97368,-22.737920000000003,0.006999999999999999,23.231032140609706
mid,2020-07-19 23:36:36.760,146.25,63.65833000000001,-19.88573,0.132,121.5680294860462
sau,2020-07-19 23:36:39.930,430.61,63.989830000000005,-20.41519,0.07400000000000001,91.38436908074857
hvo,2020-07-19 23:36:42.150,97.04,63.5261,-18.84781,0.196,175.16021250323084
vog,2020-07-19 23:36:43.840,3849.8,63.969669999999994,-22.39285,0.006999999999999999,7.343645147011723
ves,2020-07-19 23:36:44.150,450.54,63.44291,-20.28664,0.055,112.3121675178312
asb,2020-07-19 23:36:46.580,348.33,64.74818,-21.32535,0.094,102.20979550069717
skr,2020-07-19 23:36:53.590,40.93,64.56014,-18.386470000000003,0.858,201.26437813630116
jok,2020-07-19 23:36:55.460,252.5,64.31529,-18.22546,0.736,201.89333036214197
fed,2020-07-19 23:36:59.840,623.61,64.02508,-19.69086,0.43200000000000005,126.99383226360253
mjo,2020-07-19 23:37:03.090,708.79,63.93295,-19.67238,0.7040000000000001,127.65669187968179
hau,2020-07-19 23:37:06.240,475.41,63.968509999999995,-19.96471,0.096,113.33289588106824
rju,2020-07-19 23:37:16.510,113.13,63.61745,-18.6721,0.17300000000000001,181.05910777300755
gyg,2020-07-19 23:37:19.230,233.91,64.28107,-20.21483,0.11900000000000001,107.8198990541938
kal,2020-07-19 23:37:21.070,11.77,63.94761,-17.68698,0.078,224.95571145195453
sly,2020-07-19 23:37:24.980,552.49,63.82402,-19.11732,0.633,155.61685354791982
hus,2020-07-19 23:37:25.820,50.3,64.2955,-17.6565,1.314,228.70861334451214
esk,2020-07-19 23:37:48.000,105.28,63.52503000000001,-19.4508,0.095,146.61148884985244
iey,2020-07-19 23:38:13.500,87.92,64.09534000000001,-18.123910000000002,0.652,203.8400435272672
